[
  {
    "answer": "Esc",
    "question": "ProTracker 2: Exit Disk Op. / Edit Op. / Sampler etc...",
    "box": 0,
    "date": 0
  },
  {
    "answer": "F1",
    "question": "ProTracker 2: Choose low octave (from C-1 to G-3)",
    "box": 0,
    "date": 0
  },
  {
    "answer": "F2",
    "question": "ProTracker 2: Choose high octave (from C-2 to B-3)",
    "box": 0,
    "date": 0
  },
  {
    "answer": "F3",
    "question": "ProTracker 2: Cut (sample)",
    "box": 0,
    "date": 0
  },
  {
    "answer": "F4",
    "question": "ProTracker 2: Copy (sample)",
    "box": 0,
    "date": 0
  },
  {
    "answer": "F5",
    "question": "ProTracker 2: Paste (sample)",
    "box": 0,
    "date": 0
  },
  {
    "answer": "Shift+F3",
    "question": "ProTracker 2: Cut track to buffer",
    "box": 0,
    "date": 0
  },
  {
    "answer": "Shift+F4",
    "question": "ProTracker 2: Copy track to buffer",
    "box": 0,
    "date": 0
  },
  {
    "answer": "Shift+F5",
    "question": "ProTracker 2: Paste track buffer to track",
    "box": 0,
    "date": 0
  },
  {
    "answer": "Alt+F3",
    "question": "ProTracker 2: Cut whole pattern to buffer",
    "box": 0,
    "date": 0
  },
  {
    "answer": "Alt+F4",
    "question": "ProTracker 2: Copy whole pattern to buffer",
    "box": 0,
    "date": 0
  },
  {
    "answer": "Alt+F5",
    "question": "ProTracker 2: Paste pattern buffer to pattern",
    "box": 0,
    "date": 0
  },
  {
    "answer": "Ctrl+F3",
    "question": "ProTracker 2: Cut commands to buffer",
    "box": 0,
    "date": 0
  },
  {
    "answer": "Ctrl+F4",
    "question": "ProTracker 2: Copy commands to buffer",
    "box": 0,
    "date": 0
  },
  {
    "answer": "Ctrl+F5",
    "question": "ProTracker 2: Paste command buffer to track",
    "box": 0,
    "date": 0
  },
  {
    "answer": "F6",
    "question": "ProTracker 2: Go to pattern position 0",
    "box": 0,
    "date": 0
  },
  {
    "answer": "F7",
    "question": "ProTracker 2: Go to pattern position 16",
    "box": 0,
    "date": 0
  },
  {
    "answer": "F8",
    "question": "ProTracker 2: Go to pattern position 32",
    "box": 0,
    "date": 0
  },
  {
    "answer": "F9",
    "question": "ProTracker 2: Go to pattern position 49",
    "box": 0,
    "date": 0
  },
  {
    "answer": "F10",
    "question": "ProTracker 2: Go to pattern position 63",
    "box": 0,
    "date": 0
  },
  {
    "answer": "Shift+F6-F10",
    "question": "ProTracker 2: Store current pattern position on selected F-key",
    "box": 0,
    "date": 0
  },
  {
    "answer": "Alt+F6-F10",
    "question": "ProTracker 2: Play pattern from the stored pattern position",
    "box": 0,
    "date": 0
  },
  {
    "answer": "Ctrl+F6-F10",
    "question": "ProTracker 2: Record from the stored pattern position",
    "box": 0,
    "date": 0
  },
  {
    "answer": "Help",
    "question": "ProTracker 2: Go to Help or PLST screen",
    "box": 0,
    "date": 0
  },
  {
    "answer": "Shift+Help",
    "question": "ProTracker 2: Toggle between Help or PLST on Help key",
    "box": 0,
    "date": 0
  },
  {
    "answer": "Return",
    "question": "ProTracker 2: Step 1 note forward",
    "box": 0,
    "date": 0
  },
  {
    "answer": "Backspace",
    "question": "ProTracker 2: Step 1 note backward",
    "box": 0,
    "date": 0
  },
  {
    "answer": "Shift+­Return",
    "question": "ProTracker 2: Push notes down in track",
    "box": 0,
    "date": 0
  },
  {
    "answer": "Shift+Backspace",
    "question": "ProTracker 2: Pull notes up in track",
    "box": 0,
    "date": 0
  },
  {
    "answer": "Alt+Return",
    "question": "ProTracker 2: Push notes down in pattern",
    "box": 0,
    "date": 0
  },
  {
    "answer": "Alt+Ba­ckspace",
    "question": "ProTracker 2: Pull notes up in pattern",
    "box": 0,
    "date": 0
  },
  {
    "answer": "Ctrl+R­eturn",
    "question": "ProTracker 2: Push commands down",
    "box": 0,
    "date": 0
  },
  {
    "answer": "Ctrl+B­ack­space",
    "question": "ProTracker 2: Pull commands up",
    "box": 0,
    "date": 0
  },
  {
    "answer": "Tab",
    "question": "ProTracker 2: Move cursor to next track",
    "box": 0,
    "date": 0
  },
  {
    "answer": "Shift+Tab",
    "question": "ProTracker 2: Move cursor to previous track",
    "box": 0,
    "date": 0
  },
  {
    "answer": "Alt+Right",
    "question": "ProTracker 2: Pattern number up",
    "box": 0,
    "date": 0
  },
  {
    "answer": "Alt+Left",
    "question": "ProTracker 2: Pattern number down",
    "box": 0,
    "date": 0
  },
  {
    "answer": "Shift+­Right",
    "question": "ProTracker 2: Song position up",
    "box": 0,
    "date": 0
  },
  {
    "answer": "Shift+Left",
    "question": "ProTracker 2: Song position down",
    "box": 0,
    "date": 0
  },
  {
    "answer": "Ctrl+Right",
    "question": "ProTracker 2: Sample number up",
    "box": 0,
    "date": 0
  },
  {
    "answer": "Ctrl+Left",
    "question": "ProTracker 2: Sample number down",
    "box": 0,
    "date": 0
  },
  {
    "answer": "Space",
    "question": "ProTracker 2: Toggle between stop/e­dit­-mode",
    "box": 0,
    "date": 0
  },
  {
    "answer": "Ctrl+0-9",
    "question": "ProTracker 2: Set edit step to number (can only be done in edit-mode)",
    "box": 0,
    "date": 0
  },
  {
    "answer": "Blank (to the left of Z)",
    "question": "ProTracker 2: Kill DMA & set all track volumes to 0",
    "box": 0,
    "date": 0
  },
  {
    "answer": "Right Amiga",
    "question": "ProTracker 2: Play pattern",
    "box": 0,
    "date": 0
  },
  {
    "answer": "Right Alt",
    "question": "ProTracker 2: Play song",
    "box": 0,
    "date": 0
  },
  {
    "answer": "Right Shift",
    "question": "ProTracker 2: Record",
    "box": 0,
    "date": 0
  },
  {
    "answer": "Caps Lock",
    "question": "ProTracker 2: Toggle key repeat on/off",
    "box": 0,
    "date": 0
  },
  {
    "answer": "Del",
    "question": "ProTracker 2: Delete note under cursor",
    "box": 0,
    "date": 0
  },
  {
    "answer": "Alt+Del",
    "question": "ProTracker 2: Delete command only",
    "box": 0,
    "date": 0
  },
  {
    "answer": "Shift+Del",
    "question": "ProTracker 2: Delete note and command",
    "box": 0,
    "date": 0
  },
  {
    "answer": "Shift+0-9",
    "question": "ProTracker 2: Store current command on selected key",
    "box": 0,
    "date": 0
  },
  {
    "answer": "Alt+0-9",
    "question": "ProTracker 2: Insert command in current track",
    "box": 0,
    "date": 0
  },
  {
    "answer": "Alt+-",
    "question": "ProTracker 2: Copy command above cursor to current pattern position and subtract 1 from the value",
    "box": 0,
    "date": 0
  },
  {
    "answer": "Alt+=",
    "question": "ProTracker 2: Copy command above cursor to current pattern position and add 1 to the value",
    "box": 0,
    "date": 0
  },
  {
    "answer": "Alt+\",
    "question": "ProTracker 2: Copy command above cursor to current pattern position",
    "box": 0,
    "date": 0
  },
  {
    "answer": "\",
    "question": "ProTracker 2: Toggle keypad mode (if auto insert effect is disabled) [dots will appear on the right side!]",
    "box": 0,
    "date": 0
  },
  {
    "answer": "the 2nd key to the left of Return",
    "question": "ProTracker 2: Decrease auto insert slot (if auto insert effect is enabled)",
    "box": 0,
    "date": 0
  },
  {
    "answer": "the 1st key to the left of Return",
    "question": "ProTracker 2: Increase auto insert slot (if auto insert effect is enabled) (hold Shift to increa­se/­dec­rease auto insert even more)",
    "box": 0,
    "date": 0
  },
  {
    "answer": "Numpad 0",
    "question": "ProTracker 2: Select Sample $0",
    "box": 0,
    "date": 0
  },
  {
    "answer": "Numpad 1st row",
    "question": "ProTracker 2: Select Sample $1-$4",
    "box": 0,
    "date": 0
  },
  {
    "answer": "Numpad 2nd row",
    "question": "ProTracker 2: Select Sample $5-$8",
    "box": 0,
    "date": 0
  },
  {
    "answer": "Numpad 3rd row",
    "question": "ProTracker 2: Select Sample $9-$c",
    "box": 0,
    "date": 0
  },
  {
    "answer": "Numpad 4th row",
    "question": "ProTracker 2: Select Sample $d-$f",
    "box": 0,
    "date": 0
  },
  {
    "answer": "Numpad Enter",
    "question": "ProTracker 2: Select Sample $10",
    "box": 0,
    "date": 0
  },
  {
    "answer": "Numpad Enter+keys",
    "question": "ProTracker 2: Select Sample $11-$1F",
    "box": 0,
    "date": 0
  },
  {
    "answer": "Numpad .",
    "question": "ProTracker 2: Kill Sample",
    "box": 0,
    "date": 0
  },
  {
    "answer": "Alt+Numpad keypad",
    "question": "ProTracker 2: Tune drumpad",
    "box": 0,
    "date": 0
  },
  {
    "answer": "Left Amiga+1",
    "question": "ProTracker 2: Transpose sample­/track up by 1 note",
    "box": 0,
    "date": 0
  },
  {
    "answer": "Left Amiga+Q",
    "question": "ProTracker 2: Transpose sample­/track down by 1 note",
    "box": 0,
    "date": 0
  },
  {
    "answer": "Left Amiga+A",
    "question": "ProTracker 2: Transpose sample­/track up by 1 octave",
    "box": 0,
    "date": 0
  },
  {
    "answer": "Left Amiga+Z",
    "question": "ProTracker 2: Transpose sample­/track down by 1 octave",
    "box": 0,
    "date": 0
  },
  {
    "answer": "Left Amiga+2",
    "question": "ProTracker 2: Transpose sample­/pa­ttern up by 1 note",
    "box": 0,
    "date": 0
  },
  {
    "answer": "Left Amiga+W",
    "question": "ProTracker 2: Transpose sample­/pa­ttern down by 1 note",
    "box": 0,
    "date": 0
  },
  {
    "answer": "Left Amiga+S",
    "question": "ProTracker 2: Transpose sample­/pa­ttern up by 1 octave",
    "box": 0,
    "date": 0
  },
  {
    "answer": "Left Amiga+X",
    "question": "ProTracker 2: Transpose sample­/pa­ttern down by 1 octave",
    "box": 0,
    "date": 0
  },
  {
    "answer": "Left Amiga+3",
    "question": "ProTracker 2: Transpose all/track up by 1 note",
    "box": 0,
    "date": 0
  },
  {
    "answer": "Left Amiga+E",
    "question": "ProTracker 2: Transpose all/track down by 1 note",
    "box": 0,
    "date": 0
  },
  {
    "answer": "Left Amiga+D",
    "question": "ProTracker 2: Transpose all/track up by 1 octave",
    "box": 0,
    "date": 0
  },
  {
    "answer": "Left Amiga+C{",
      "question": "ProTracker 2: Transpose all/track down by 1 octave",
      "box": 0,
      "date": 0
    },
    {
      "answer": "Left Amiga+4",
      "question": "ProTracker 2: Transpose all/pa­ttern up by 1 note",
      "box": 0,
      "date": 0
    },
    {
      "answer": "Left Amiga+R",
      "question": "ProTracker 2: Transpose all/pa­ttern down by 1 note",
      "box": 0,
      "date": 0
    },
    {
      "answer": "Left Amiga+F",
      "question": "ProTracker 2: Transpose all/pa­ttern up by 1 octave",
      "box": 0,
      "date": 0
    },
    {
      "answer": "Left Amiga+V",
      "question": "ProTracker 2: Transpose all/pa­ttern down by 1 octave",
      "box": 0,
      "date": 0
    },
    {
      "answer": "Ctrl+A",
      "question": "ProTracker 2: Toggle current track on/off",
      "box": 0,
      "date": 0
    },
    {
      "answer": "Ctrl+B",
      "question": "ProTracker 2: Mark block",
      "box": 0,
      "date": 0
    },
    {
      "answer": "Ctrl+C",
      "question": "ProTracker 2: Copy block to buffer",
      "box": 0,
      "date": 0
    },
    {
      "answer": "Ctrl+D",
      "question": "ProTracker 2: Delete block, drag notes up",
      "box": 0,
      "date": 0
    },
    {
      "answer": "Ctrl+E",
      "question": "ProTracker 2: Expand current track",
      "box": 0,
      "date": 0
    },
    {
      "answer": "Ctrl+F",
      "question": "ProTracker 2: Toggle filter on/off",
      "box": 0,
      "date": 0
    },
    {
      "answer": "Ctrl+G",
      "question": "ProTracker 2: Boost treble on all samples",
      "box": 0,
      "date": 0
    },
    {
      "answer": "Ctrl+H",
      "question": "ProTracker 2: Transpose block up",
      "box": 0,
      "date": 0
    },
    {
      "answer": "Ctrl+I",
      "question": "ProTracker 2: Insert block, push notes down",
      "box": 0,
      "date": 0
    },
    {
      "answer": "Ctrl+J",
      "question": "ProTracker 2: Join-paste block",
      "box": 0,
      "date": 0
    },
    {
      "answer": "Ctrl+K",
      "question": "ProTracker 2: Kill to end of track",
      "box": 0,
      "date": 0
    },
    {
      "answer": "Ctrl+L",
      "question": "ProTracker 2: Transpose block down",
      "box": 0,
      "date": 0
    },
    {
      "answer": "Ctrl+M",
      "question": "ProTracker 2: Toggle multikeys",
      "box": 0,
      "date": 0
    },
    {
      "answer": "Ctrl+N",
      "question": "ProTracker 2: Re-mark last block",
      "box": 0,
      "date": 0
    },
    {
      "answer": "Ctrl+O",
      "question": "ProTracker 2: Shrink track",
      "box": 0,
      "date": 0
    },
    {
      "answer": "Ctrl+P",
      "question": "ProTracker 2: Paste block",
      "box": 0,
      "date": 0
    },
    {
      "answer": "Ctrl+Q",
      "question": "ProTracker 2: Unmute all tracks",
      "box": 0,
      "date": 0
    },
    {
      "answer": "Ctrl+R",
      "question": "ProTracker 2: Restore F6-F10 pattern positions",
      "box": 0,
      "date": 0
    },
    {
      "answer": "Ctrl+S",
      "question": "ProTracker 2: Toggle split mode",
      "box": 0,
      "date": 0
    },
    {
      "answer": "Ctrl+T",
      "question": "ProTracker 2: Swap tracks",
      "box": 0,
      "date": 0
    },
    {
      "answer": "Ctrl+U",
      "question": "ProTracker 2: Undo last pattern change",
      "box": 0,
      "date": 0
    },
    {
      "answer": "Ctrl+V",
      "question": "ProTracker 2: Decrease treble on all samples",
      "box": 0,
      "date": 0
    },
    {
      "answer": "Ctrl+W",
      "question": "ProTracker 2: Polyphonise block",
      "box": 0,
      "date": 0
    },
    {
      "answer": "Ctrl+X",
      "question": "ProTracker 2: Put block to buffer",
      "box": 0,
      "date": 0
    },
    {
      "answer": "Ctrl+Y",
      "question": "ProTracker 2: Backwards block",
      "box": 0,
      "date": 0
    },
    {
      "answer": "Ctrl+Z",
      "question": "ProTracker 2: Restore effects",
      "box": 0,
      "date": 0
    },

    {
      "answer": "Alt+A",
      "question": "ProTracker 2: Monitor/Start sampling",
      "box": 0,
      "date": 0
    },
    {
      "answer": "Alt+B",
      "question": "ProTracker 2: Treble increase current sample",
      "box": 0,
      "date": 0
    },
    {
      "answer": "Alt+C",
      "question": "ProTracker 2: Toggle track 3",
      "box": 0,
      "date": 0
    },
    {
      "answer": "Alt+D",
      "question": "ProTracker 2: Toggle Disk Op. screen",
      "box": 0,
      "date": 0
    },
    {
      "answer": "Alt+E",
      "question": "ProTracker 2: Toggle Edit Op. screen",
      "box": 0,
      "date": 0
    },
    {
      "answer": "Alt+F",
      "question": "ProTracker 2: Filter sample",
      "box": 0,
      "date": 0
    },
    {
      "answer": "Alt+G",
      "question": "ProTracker 2: Toggle record mode",
      "box": 0,
      "date": 0
    },
    {
      "answer": "Alt+I",
      "question": "ProTracker 2: Toggle auto insert effect on/off [shows Ix on the left side where x is the number of the current auto insert slot!]",
      "box": 0,
      "date": 0
    },
    {
      "answer": "Alt+K",
      "question": "ProTracker 2: Delete current sample­/track",
      "box": 0,
      "date": 0
    },
    {
      "answer": "Alt+M",
      "question": "ProTracker 2: Toggle metronome on/off (hold Shift to set metronome track)",
      "box": 0,
      "date": 0
    },
    {
      "answer": "Alt+Q",
      "question": "ProTracker 2: Quit ProTracker",
      "box": 0,
      "date": 0
    },
    {
      "answer": "Alt+R",
      "question": "ProTracker 2: Resample current sample",
      "box": 0,
      "date": 0
    },
    {
      "answer": "Alt+S",
      "question": "ProTracker 2: Toggle sampler screen",
      "box": 0,
      "date": 0
    },
    {
      "answer": "Alt+T",
      "question": "ProTracker 2: Toggle tuning tone",
      "box": 0,
      "date": 0
    },
    {
      "answer": "Alt+V",
      "question": "ProTracker 2: Toggle track 4",
      "box": 0,
      "date": 0
    },
    {
      "answer": "Alt+X",
      "question": "ProTracker 2: Toggle track 2",
      "box": 0,
      "date": 0
    },
    {
      "answer": "Alt+Y",
      "question": "ProTracker 2: Save all samples",
      "box": 0,
      "date": 0
    },
    {
      "answer": "Alt+Z",
      "question": "ProTracker 2: Toggle track 1",
      "box": 0,
      "date": 0
    }
]
