[
  {
    "question": "0 in binary",
    "answer": "0000",
    "date": 1656765593.0,
    "box": 10
  },
  {
    "question": "1 in binary",
    "answer": "0001",
    "date": 1656765595.0,
    "box": 10
  },
  {
    "question": "2 in binary",
    "answer": "0010",
    "date": 1656765598.0,
    "box": 10
  },
  {
    "question": "3 in binary",
    "answer": "0011",
    "date": 1659416870.0,
    "box": 10
  },
  {
    "question": "4 in binary",
    "answer": "0100",
    "date": 1656765611.0,
    "box": 10
  },
  {
    "question": "5 in binary",
    "answer": "0101",
    "date": 1656765615.0,
    "box": 10
  },
  {
    "question": "6 in binary",
    "answer": "0110",
    "date": 1656765635.0,
    "box": 10
  },
  {
    "question": "7 in binary",
    "answer": "0111",
    "date": 1656765623.0,
    "box": 10
  },
  {
    "question": "8 in binary",
    "answer": "1000",
    "date": 1656765660.0,
    "box": 10
  },
  {
    "question": "9 in binary",
    "answer": "1001",
    "date": 1656765627.0,
    "box": 10
  },
  {
    "question": "A in binary",
    "answer": "1010",
    "date": 1656986553.0,
    "box": 10
  },
  {
    "question": "B in binary",
    "answer": "1011",
    "date": 1656986555.0,
    "box": 10
  },
  {
    "question": "C in binary",
    "answer": "1100",
    "date": 1656986549.0,
    "box": 10
  },
  {
    "question": "D in binary",
    "answer": "1101",
    "date": 1660501883.0,
    "box": 10
  },
  {
    "question": "E in binary",
    "answer": "1110",
    "date": 1656765591.0,
    "box": 10
  },
  {
    "question": "F in binary",
    "answer": "1111",
    "date": 1656765586.0,
    "box": 10
  },
  {
    "question": "10 in hex",
    "answer": "A",
    "date": 1663636001.0,
    "box": 10
  },
  {
    "question": "11 in hex",
    "answer": "B",
    "date": 1656765649.0,
    "box": 10
  },
  {
    "question": "12 in hex",
    "answer": "C",
    "date": 1656986566.0,
    "box": 10
  },
  {
    "question": "13 in hex",
    "answer": "D",
    "date": 1663634003.0,
    "box": 10
  },
  {
    "question": "14 in hex",
    "answer": "E",
    "date": 1656765632.0,
    "box": 10
  },
  {
    "question": "15 in hex",
    "answer": "F",
    "date": 1659416880.0,
    "box": 10
  },
  {
    "question": "In GDB, how do you start a program with [args]?",
    "answer": "run [args]",
    "date": 1656986576.0,
    "box": 10
  },
  {
    "question": "In GDB, how do you Set a break point at [file:]function?",
    "answer": "break [file:]function",
    "date": 1656986607.0,
    "box": 10
  },
  {
    "question": "In GDB, how do you dump a backtrace of the current calling stack?",
    "answer": "backtrace",
    "date": 1653698020.0,
    "box": 8
  },
  {
    "question": "In GDB, how do you print the value expr?",
    "answer": "print expr",
    "date": 1656986594.0,
    "box": 10
  },
  {
    "question": "In GDB, how do you continue running the program?",
    "answer": "continue",
    "date": 1656986615.0,
    "box": 10
  },
  {
    "question": "In GDB, how do move to next line, but step over function calls?",
    "answer": "next",
    "date": 1656986621.0,
    "box": 10
  },
  {
    "question": "In GDB, how do move to next line, but step into function calls?",
    "answer": "step",
    "date": 1656986624.0,
    "box": 10
  },
  {
    "question": "How do you exit GDB?",
    "answer": "exit",
    "date": 1656986626.0,
    "box": 10
  },
  {
    "question": "In GDB, how do you list the types of commands?",
    "answer": "help",
    "date": 1656986635.0,
    "box": 10
  },
  {
    "question": "In GDB, how do you change directory?",
    "answer": "cd",
    "date": 1656986638.0,
    "box": 10
  },
  {
    "question": "In GDB, how do you print working directory?",
    "answer": "pwd",
    "date": 1656986641.0,
    "box": 10
  },
  {
    "question": "In GDB, how do you run make?",
    "answer": "make",
    "date": 1656986644.0,
    "box": 10
  },
  {
    "question": "In GDB, how do you start a shell to do other things?",
    "answer": "shell",
    "date": 1656986648.0,
    "box": 10
  },
  {
    "question": "In GDB, clear a breakpoint?",
    "answer": "clear",
    "date": 1656986650.0,
    "box": 10
  },
  {
    "question": "In GDB, how do you show info about breakpoints?",
    "answer": "info break",
    "date": 1660503601.0,
    "box": 10
  },
  {
    "question": "In GDB, how do you show info about watchpoints?",
    "answer": "info watch",
    "date": 1656986662.0,
    "box": 10
  },
  {
    "question": "In GDB, how do you attach to a running process so you can debug it?",
    "answer": "attach pid",
    "date": 1656986670.0,
    "box": 10
  },
  {
    "question": "In GDB, how do you detach from a process?",
    "answer": "detach",
    "date": 1656986674.0,
    "box": 10
  },
  {
    "question": "In GDB, how do you list out the next ten source lines?",
    "answer": "list",
    "date": 1656986681.0,
    "box": 10
  },
  {
    "question": "When using the GDB list command, what can you add to list the previous ten lines?",
    "answer": "-",
    "date": 1656986687.0,
    "box": 10
  },
  {
    "question": "In GDB, what is the shorthand for break?",
    "answer": "b",
    "date": 1656986691.0,
    "box": 10
  },
  {
    "question": "In GDB, what is the shorthand for backtrace?",
    "answer": "bt",
    "date": 1657012680.0,
    "box": 10
  },
  {
    "question": "In GDB, what is the shorthand for print?",
    "answer": "p",
    "date": 1656986693.0,
    "box": 10
  },
  {
    "question": "In GDB, what is the shorthand for continue?",
    "answer": "c",
    "date": 1656986694.0,
    "box": 10
  },
  {
    "question": "In GDB, what is the shorthand for next?",
    "answer": "n",
    "date": 1656986696.0,
    "box": 10
  },
  {
    "question": "In GDB, what is the shorthand for step?",
    "answer": "s",
    "date": 1656986697.0,
    "box": 10
  },
  {
    "question": "0000 in hex",
    "answer": "0",
    "date": 1656986708.0,
    "box": 10
  },
  {
    "question": "0001 in hex",
    "answer": "1",
    "date": 1656986701.0,
    "box": 10
  },
  {
    "question": "0010 in hex",
    "answer": "2",
    "date": 1656986733.0,
    "box": 10
  },
  {
    "question": "0011 in hex",
    "answer": "3",
    "date": 1656986719.0,
    "box": 10
  },
  {
    "question": "0100 in hex",
    "answer": "4",
    "date": 1656986726.0,
    "box": 10
  },
  {
    "question": "0101 in hex",
    "answer": "5",
    "date": 1657012698.0,
    "box": 10
  },
  {
    "question": "0110 in hex",
    "answer": "6",
    "date": 1656986704.0,
    "box": 10
  },
  {
    "question": "0111 in hex",
    "answer": "7",
    "date": 1656986712.0,
    "box": 10
  },
  {
    "question": "1000 in hex",
    "answer": "8",
    "date": 1656986706.0,
    "box": 10
  },
  {
    "question": "1001 in hex",
    "answer": "9",
    "date": 1656986722.0,
    "box": 10
  },
  {
    "question": "1010 in hex",
    "answer": "A",
    "date": 1657741287.0,
    "box": 10
  },
  {
    "question": "1011 in hex",
    "answer": "B",
    "date": 1658087512.0,
    "box": 10
  },
  {
    "question": "1100 in hex",
    "answer": "C",
    "date": 1658087333.0,
    "box": 10
  },
  {
    "question": "1101 in hex",
    "answer": "D",
    "date": 1653604472.0,
    "box": 9
  },
  {
    "question": "1110 in hex",
    "answer": "E",
    "date": 1657209675.0,
    "box": 10
  },
  {
    "question": "1111 in hex",
    "answer": "F",
    "date": 1656986730.0,
    "box": 10
  },
  {
    "question": "A in decimal",
    "answer": "10",
    "date": 1656986753.0,
    "box": 10
  },
  {
    "question": "B in decimal",
    "answer": "11",
    "date": 1659641386.0,
    "box": 10
  },
  {
    "question": "C in decimal",
    "answer": "12",
    "date": 1660685136.0,
    "box": 10
  },
  {
    "question": "D in decimal",
    "answer": "13",
    "date": 1656986757.0,
    "box": 10
  },
  {
    "question": "E in decimal",
    "answer": "14",
    "date": 1653700278.0,
    "box": 8
  },
  {
    "question": "F in decimal",
    "answer": "15",
    "date": 1656986750.0,
    "box": 10
  },
  {
    "question": "ANSI C Add",
    "answer": "+",
    "date": 1657007889.0,
    "box": 10
  },
  {
    "question": "ANSI C Subtract",
    "answer": "-",
    "date": 1657007893.0,
    "box": 10
  },
  {
    "question": "ANSI C Multiply",
    "answer": "*",
    "date": 1657007895.0,
    "box": 10
  },
  {
    "question": "ANSI C Divide",
    "answer": "/",
    "date": 1657007896.0,
    "box": 10
  },
  {
    "question": "ANSI C Modulus",
    "answer": "%",
    "date": 1657007899.0,
    "box": 10
  },
  {
    "question": "ANSI C Increment",
    "answer": "++",
    "date": 1657007901.0,
    "box": 10
  },
  {
    "question": "ANSI C Decrement",
    "answer": "--",
    "date": 1657007903.0,
    "box": 10
  },
  {
    "question": "ANSI C Check for equality",
    "answer": "==",
    "date": 1657012837.0,
    "box": 10
  },
  {
    "question": "ANSI C Not equal",
    "answer": "!=",
    "date": 1657007905.0,
    "box": 10
  },
  {
    "question": "ANSI C Greater than",
    "answer": ">",
    "date": 1657007907.0,
    "box": 10
  },
  {
    "question": "ANSI C Less than",
    "answer": "<",
    "date": 1657209650.0,
    "box": 10
  },
  {
    "question": "ANSI C Greater than equal",
    "answer": ">=",
    "date": 1657007909.0,
    "box": 10
  },
  {
    "question": "ANSI C Less than equal",
    "answer": "<=",
    "date": 1657007911.0,
    "box": 10
  },
  {
    "question": "ANSI C Logical and",
    "answer": "&&",
    "date": 1657007917.0,
    "box": 10
  },
  {
    "question": "ANSI C Logical or",
    "answer": "||",
    "date": 1658087352.0,
    "box": 10
  },
  {
    "question": "ANSI C Logical not",
    "answer": "!",
    "date": 1657012336.0,
    "box": 10
  },
  {
    "question": "ANSI C Logical ternary",
    "answer": "? :",
    "date": 1657012348.0,
    "box": 10
  },
  {
    "question": "ANSI C Bitwise and",
    "answer": "&",
    "date": 1657012352.0,
    "box": 10
  },
  {
    "question": "ANSI C Bitwise or",
    "answer": "|",
    "date": 1657012354.0,
    "box": 10
  },
  {
    "question": "ANSI C Bitwise xor",
    "answer": "^",
    "date": 1657012356.0,
    "box": 10
  },
  {
    "question": "ANSI C Bitwise ones compliment",
    "answer": "~",
    "date": 1657012360.0,
    "box": 10
  },
  {
    "question": "ANSI C Bitwise shift left",
    "answer": "<<",
    "date": 1657012366.0,
    "box": 10
  },
  {
    "question": "ANSI C Bitwise shift right",
    "answer": ">>",
    "date": 1657012367.0,
    "box": 10
  },
  {
    "question": "ANSI C Assign equal",
    "answer": "=",
    "date": 1657012371.0,
    "box": 10
  },
  {
    "question": "ANSI C Assign plus-equal",
    "answer": "+=",
    "date": 1657012379.0,
    "box": 10
  },
  {
    "question": "ANSI C Assign minus-equal",
    "answer": "-=",
    "date": 1657012373.0,
    "box": 10
  },
  {
    "question": "ANSI C Assign multiply-equal",
    "answer": "*=",
    "date": 1657012376.0,
    "box": 10
  },
  {
    "question": "ANSI C Assign divide-equal",
    "answer": "/=",
    "date": 1657012378.0,
    "box": 10
  },
  {
    "question": "ANSI C Assign modulus-equal",
    "answer": "%=",
    "date": 1657012386.0,
    "box": 10
  },
  {
    "question": "ANSI C Assign shift-left-equal",
    "answer": "<<=",
    "date": 1657012384.0,
    "box": 10
  },
  {
    "question": "ANSI C Assign shift-right-equal",
    "answer": ">>=",
    "date": 1657012388.0,
    "box": 10
  },
  {
    "question": "ANSI C Assign and-equal",
    "answer": "&=",
    "date": 1657012394.0,
    "box": 10
  },
  {
    "question": "ANSI C Assign xor-equal",
    "answer": "^=",
    "date": 1657012401.0,
    "box": 10
  },
  {
    "question": "ANSI C Assign or-equal",
    "answer": "|=",
    "date": 1657012488.0,
    "box": 10
  },
  {
    "question": "ANSI C Get size of",
    "answer": "sizeof()",
    "date": 1657012492.0,
    "box": 10
  },
  {
    "question": "ANSI C Array subscript",
    "answer": "[]",
    "date": 1657012494.0,
    "box": 10
  },
  {
    "question": "ANSI C The address of",
    "answer": "&",
    "date": 1658087349.0,
    "box": 10
  },
  {
    "question": "ANSI C The value of",
    "answer": "*",
    "date": 1657012501.0,
    "box": 10
  },
  {
    "question": "ANSI C Stucture dereference",
    "answer": "->",
    "date": 1658087356.0,
    "box": 10
  },
  {
    "question": "ANSI C Structure reference",
    "answer": ".",
    "date": 1661045653.0,
    "box": 10
  },
  {
    "question": "ANSI C Give a local variable a local lifetime",
    "answer": "auto",
    "date": 1657012518.0,
    "box": 10
  },
  {
    "question": "ANSI C Exit out of a compound statement",
    "answer": "break",
    "date": 1657012525.0,
    "box": 10
  },
  {
    "question": "ANSI C A branch of a switch-statement",
    "answer": "case",
    "date": 1657012529.0,
    "box": 10
  },
  {
    "question": "ANSI C Character data type",
    "answer": "char",
    "date": 1657012531.0,
    "box": 10
  },
  {
    "question": "ANSI C Make a variable unmodifiable",
    "answer": "const",
    "date": 1657012545.0,
    "box": 10
  },
  {
    "question": "ANSI C Continue to the top of a loop",
    "answer": "continue",
    "date": 1657209653.0,
    "box": 10
  },
  {
    "question": "ANSI C Default branch in a switch-statement",
    "answer": "default",
    "date": 1657012550.0,
    "box": 10
  },
  {
    "question": "ANSI C Start a do-while loop",
    "answer": "do",
    "date": 1657012554.0,
    "box": 10
  },
  {
    "question": "ANSI C A double floating point data type",
    "answer": "double",
    "date": 1657012601.0,
    "box": 10
  },
  {
    "question": "ANSI C An else branch of an if-statement",
    "answer": "else",
    "date": 1657209667.0,
    "box": 10
  },
  {
    "question": "ANSI C Define a set of int constraints",
    "answer": "enum",
    "date": 1657012568.0,
    "box": 10
  },
  {
    "question": "ANSI C Declare an identifier is defined externally",
    "answer": "extern",
    "date": 1658087463.0,
    "box": 10
  },
  {
    "question": "ANSI C A floating point data type",
    "answer": "float",
    "date": 1657012586.0,
    "box": 10
  },
  {
    "question": "ANSI C Start a for-loop",
    "answer": "for",
    "date": 1657012588.0,
    "box": 10
  },
  {
    "question": "ANSI C Jump to a label",
    "answer": "goto",
    "date": 1657012591.0,
    "box": 10
  },
  {
    "question": "ANSI C Starts an if-statement",
    "answer": "if",
    "date": 1657012602.0,
    "box": 10
  },
  {
    "question": "ANSI C An integer data type",
    "answer": "int",
    "date": 1657012605.0,
    "box": 10
  },
  {
    "question": "ANSI C A long integer data type",
    "answer": "long",
    "date": 1657012607.0,
    "box": 10
  },
  {
    "question": "ANSI C Declare a variable to be stored in a CPU register",
    "answer": "register",
    "date": 1657012613.0,
    "box": 10
  },
  {
    "question": "ANSI C Return from a function",
    "answer": "return",
    "date": 1657012616.0,
    "box": 10
  },
  {
    "question": "ANSI C A short integer data type",
    "answer": "short",
    "date": 1657012638.0,
    "box": 10
  },
  {
    "question": "ANSI C A signed modifier for integer data types",
    "answer": "signed",
    "date": 1657012654.0,
    "box": 10
  },
  {
    "question": "ANSI C Preserve variable value after its scope exits",
    "answer": "static",
    "date": 1657012663.0,
    "box": 10
  },
  {
    "question": "ANSI C Combine variables into a single record",
    "answer": "struct",
    "date": 1657012670.0,
    "box": 10
  },
  {
    "question": "ANSI C Start a switch-statement",
    "answer": "switch",
    "date": 1657012677.0,
    "box": 10
  },
  {
    "question": "ANSI C Create a new type",
    "answer": "typedef",
    "date": 1657012740.0,
    "box": 10
  },
  {
    "question": "ANSI C Start a union-statement",
    "answer": "union",
    "date": 1657012743.0,
    "box": 10
  },
  {
    "question": "ANSI C An unsigned modifier for integer data types",
    "answer": "unsigned",
    "date": 1657461444.0,
    "box": 10
  },
  {
    "question": "ANSI C Declare a data type empty",
    "answer": "void",
    "date": 1657012748.0,
    "box": 10
  },
  {
    "question": "ANSI C Declare a variable might be modified elsewhere",
    "answer": "volatile",
    "date": 1657209705.0,
    "box": 10
  },
  {
    "question": "ANSI C Start a while-loop",
    "answer": "while",
    "date": 1657012840.0,
    "box": 10
  },
  {
    "question": "positive integers",
    "answer": "1,2,3...",
    "date": 1658089760.0,
    "box": 10
  },
  {
    "question": "non-negative integers",
    "answer": "0,1,2,3...",
    "date": 1658087567.0,
    "box": 10
  },
  {
    "question": "in hex, what is the range of a single byte?",
    "answer": "0x00 to 0xFF",
    "date": 1658089816.0,
    "box": 10
  },
  {
    "answer": "?",
    "question": "in nethack: display one of several informative texts",
    "date": 1660500803.0,
    "box": 10
  },
  {
    "answer": "S",
    "question": "in nethack: save the game (to be continued later) and exit",
    "date": 1660500837.0,
    "box": 10
  },
  {
    "answer": "!",
    "question": "in nethack: escape to some SHELL (if allowed; 'exit' to resume play)",
    "date": 1653699957.0,
    "box": 8
  },
  {
    "answer": "^Z",
    "question": "in nethack: suspend the game (independent of your current suspend char)",
    "date": 1661203205.0,
    "box": 10
  },
  {
    "answer": "fg",
    "question": "in nethack: resume game",
    "date": 1663635906.0,
    "box": 10
  },
  {
    "answer": "O",
    "question": "in nethack: set options",
    "date": 1660500806.0,
    "box": 10
  },
  {
    "answer": "/",
    "question": "in nethack: tell what a map symbol represents",
    "date": 1653604548.0,
    "box": 9
  },
  {
    "answer": "\\",
    "question": "in nethack: display list of what's been discovered",
    "date": 1653699652.0,
    "box": 8
  },
  {
    "answer": "v",
    "question": "in nethack: display version number",
    "date": 1660882391.0,
    "box": 10
  },
  {
    "answer": "V",
    "question": "in nethack: display game history",
    "date": 1653699915.0,
    "box": 8
  },
  {
    "answer": "^A",
    "question": "in nethack: redo the previous command",
    "date": 1653699966.0,
    "box": 8
  },
  {
    "answer": "^R",
    "question": "in nethack: redraw the screen",
    "date": 1660500900.0,
    "box": 10
  },
  {
    "answer": "^P",
    "question": "in nethack: repeat previous message",
    "date": 1660501918.0,
    "box": 10
  },
  {
    "answer": "#",
    "question": "in nethack: introduce an extended command",
    "date": 1660500895.0,
    "box": 10
  },
  {
    "answer": "#?",
    "question": "in nethack: list extended commands",
    "date": 1660500943.0,
    "box": 10
  },
  {
    "answer": "&",
    "question": "in nethack: describe the command a keystroke invokes",
    "date": 1653384900.0,
    "box": 6
  },
  {
    "answer": "^D",
    "question": "in nethack: kick (a door, or something else)",
    "box": 10,
    "date": 1660500948.0
  },
  {
    "answer": "^T",
    "question": "in nethack: teleport (if you can)",
    "box": 10,
    "date": 1660503497.0
  },
  {
    "answer": "^X",
    "question": "in nethack: show your attributes",
    "box": 10,
    "date": 1661045691.0
  },
  {
    "answer": "a",
    "question": "in nethack: apply or use a tool (pick-axe, key, camera, etc.)",
    "box": 8,
    "date": 1653699972.0
  },
  {
    "answer": "A",
    "question": "in nethack: take off all armor",
    "box": 10,
    "date": 1660502033.0
  },
  {
    "answer": "c",
    "question": "in nethack: close a door",
    "box": 10,
    "date": 1660501811.0
  },
  {
    "answer": "C",
    "question": "in nethack: name a monster, an individual object, or a type of object",
    "box": 9,
    "date": 1653604529.0
  },
  {
    "answer": "d",
    "question": "in nethack: drop an object.  d7a:  drop seven items of object 'a'",
    "box": 10,
    "date": 1660501818.0
  },
  {
    "answer": "D",
    "question": "in nethack: drop selected types of objects",
    "box": 10,
    "date": 1660685109.0
  },
  {
    "answer": "e",
    "question": "in nethack: eat something",
    "box": 10,
    "date": 1660501823.0
  },
  {
    "answer": "E",
    "question": "in nethack: write a message in the dust on the floor",
    "box": 9,
    "date": 1653604514.0
  },
  {
    "answer": "f",
    "question": "in nethack: fire ammunition from quiver",
    "box": 10,
    "date": 1660501826.0
  },
  {
    "answer": "F",
    "question": "in nethack: followed by direction, fight a monster",
    "box": 10,
    "date": 1660502132.0
  },
  {
    "answer": "i",
    "question": "in nethack: list your inventory (all objects you are carrying)",
    "box": 10,
    "date": 1660501835.0
  },
  {
    "answer": "I",
    "question": "in nethack: list selected parts of your inventory",
    "box": 8,
    "date": 1653700168.0
  },
  {
    "answer": "Iu",
    "question": "in nethack: list unpaid objects",
    "box": 10,
    "date": 1660501841.0
  },
  {
    "answer": "Ix",
    "question": "in nethack: list unpaid but used up items",
    "box": 10,
    "date": 1660501844.0
  },
  {
    "answer": "I$",
    "question": "in nethack: count your money",
    "box": 9,
    "date": 1653604520.0
  },
  {
    "answer": "o",
    "question": "in nethack: open a door",
    "box": 10,
    "date": 1660501847.0
  },
  {
    "answer": "p",
    "question": "in nethack: pay your bill (in a shop)",
    "box": 10,
    "date": 1663635975.0
  },
  {
    "answer": "P",
    "question": "in nethack: put on an accessory (ring, amulet, etc)",
    "box": 9,
    "date": 1653512743.0
  },
  {
    "answer": "q",
    "question": "in nethack: drink something (potion, water, etc)",
    "box": 10,
    "date": 1660501986.0
  },
  {
    "answer": "Q",
    "question": "in nethack: select ammunition for quiver",
    "box": 9,
    "date": 1653513110.0
  },
  {
    "answer": "r",
    "question": "in nethack: read a scroll or spellbook",
    "box": 10,
    "date": 1660503494.0
  },
  {
    "answer": "R",
    "question": "in nethack: remove an accessory (ring, amulet, etc)",
    "box": 10,
    "date": 1660501991.0
  },
  {
    "answer": "s",
    "question": "in nethack: search for secret doors, hidden traps and monsters",
    "box": 10,
    "date": 1660501993.0
  },
  {
    "answer": "t",
    "question": "in nethack: throw or shoot a weapon",
    "box": 10,
    "date": 1661045658.0
  },
  {
    "answer": "T",
    "question": "in nethack: take off some armor",
    "box": 10,
    "date": 1660501995.0
  },
  {
    "answer": "w",
    "question": "in nethack: wield a weapon",
    "box": 10,
    "date": 1661045656.0
  },
  {
    "answer": "W",
    "question": "in nethack: put on some armor",
    "box": 9,
    "date": 1653604790.0
  },
  {
    "answer": "x",
    "question": "in nethack: swap wielded and secondary weapons",
    "box": 10,
    "date": 1660502000.0
  },
  {
    "answer": "X",
    "question": "in nethack: toggle two-weapon combat (use '#explore' for explore mode)",
    "box": 10,
    "date": 1660502005.0
  },
  {
    "answer": "z",
    "question": "in nethack: zap a wand  (use y instead of z if number_pad is -1)",
    "box": 10,
    "date": 1660502007.0
  },
  {
    "answer": "Z",
    "question": "in nethack: cast a spell  (use Y instead of Z if number_pad is -1)",
    "box": 10,
    "date": 1660502010.0
  },
  {
    "answer": "<",
    "question": "in nethack: go up the stairs",
    "box": 10,
    "date": 1660502014.0
  },
  {
    "answer": ">",
    "question": "in nethack: go down the stairs",
    "box": 10,
    "date": 1660502013.0
  },
  {
    "answer": "^",
    "question": "in nethack: identify a previously found trap",
    "box": 10,
    "date": 1660683741.0
  },
  {
    "answer": "),[,=,\",(",
    "question": "in nethack: the symbols of stuff in use that you can ask about",
    "box": 8,
    "date": 1653694804.0
  },
  {
    "answer": "*",
    "question": "in nethack: ask for combination of ),[,=,\",( all at once",
    "box": 10,
    "date": 1660502025.0
  },
  {
    "answer": "$",
    "question": "in nethack: count your gold",
    "box": 10,
    "date": 1660502028.0
  },
  {
    "answer": "+",
    "question": "in nethack: list the spells you know; also rearrange them if desired",
    "box": 10,
    "date": 1660882406.0
  },
  {
    "answer": "`",
    "question": "in nethack: display known items for one class of objects",
    "box": 6,
    "date": 1653385321.0
  },
  {
    "answer": "_",
    "question": "in nethack: move via a shortest-path algorithm to a point on the map",
    "box": 10,
    "date": 1660683749.0
  },
  {
    "answer": ".",
    "question": "in nethack: wait a moment",
    "box": 10,
    "date": 1660502036.0
  },
  {
    "answer": ",",
    "question": "in nethack: pick up all you can carry",
    "box": 10,
    "date": 1660502044.0
  },
  {
    "answer": "@",
    "question": "in nethack: toggle pickup (auto pickup) option on and off",
    "box": 8,
    "date": 1653699983.0
  },
  {
    "answer": ":",
    "question": "in nethack: look at what is here",
    "box": 8,
    "date": 1653700578.0
  },
  {
    "answer": ";",
    "question": "in nethack: look at what is somewhere else by selecting a map symbol",
    "box": 6,
    "date": 1653385329.0
  },
  {
    "answer": "adjust",
    "question": "nethack extended: adjust inventory letters",
    "box": 9,
    "date": 1653604525.0
  },
  {
    "answer": "annotate",
    "question": "nethack extended: name current level",
    "box": 10,
    "date": 1660502843.0
  },
  {
    "answer": "apply",
    "question": "nethack extended: apply (use) a tool (pick-axe, key, lamp...)",
    "box": 10,
    "date": 1660502240.0
  },
  {
    "answer": "attributes",
    "question": "nethack extended: show your attributes",
    "box": 10,
    "date": 1660502184.0
  },
  {
    "answer": "autopickup",
    "question": "nethack extended: toggle the pickup option on/off",
    "box": 10,
    "date": 1660502122.0
  },
  {
    "answer": "call",
    "question": "nethack extended: call (name) something",
    "box": 10,
    "date": 1660502243.0
  },
  {
    "answer": "cast",
    "question": "nethack extended: zap (cast) a spell",
    "box": 9,
    "date": 1655427337.0
  },
  {
    "answer": "chat",
    "question": "nethack extended: talk to someone",
    "box": 10,
    "date": 1660502075.0
  },
  {
    "answer": "close",
    "question": "nethack extended: close a door",
    "box": 9,
    "date": 1655427249.0
  },
  {
    "answer": "conduct",
    "question": "nethack extended: list voluntary challenges you have maintained",
    "box": 10,
    "date": 1660502079.0
  },
  {
    "answer": "dip",
    "question": "nethack extended: dip an object into something",
    "box": 10,
    "date": 1660502106.0
  },
  {
    "answer": "down",
    "question": "nethack extended: go down a staircase",
    "box": 8,
    "date": 1653700051.0
  },
  {
    "answer": "drop",
    "question": "nethack extended: drop an item",
    "box": 10,
    "date": 1660502110.0
  },
  {
    "answer": "droptype",
    "question": "nethack extended: drop specific item types",
    "box": 8,
    "date": 1653700260.0
  },
  {
    "answer": "eat",
    "question": "nethack extended: eat something",
    "box": 10,
    "date": 1660502112.0
  },
  {
    "answer": "engrave",
    "question": "nethack extended: engrave writing on the floor",
    "box": 10,
    "date": 1660502189.0
  },
  {
    "answer": "enhance",
    "question": "nethack extended: advance or check weapon and spell skills",
    "box": 10,
    "date": 1660502166.0
  },
  {
    "answer": "exploremode",
    "question": "nethack extended: enter explore (discovery) mode",
    "box": 10,
    "date": 1660502174.0
  },
  {
    "answer": "fire",
    "question": "nethack extended: fire ammunition from quiver",
    "box": 10,
    "date": 1660502590.0
  },
  {
    "answer": "force",
    "question": "nethack extended: force a lock",
    "box": 10,
    "date": 1660502177.0
  },
  {
    "answer": "glance",
    "question": "nethack extended: show what type of thing a map symbol corresponds to",
    "box": 8,
    "date": 1653697970.0
  },
  {
    "answer": "help",
    "question": "nethack extended: give a help message",
    "box": 10,
    "date": 1660502196.0
  },
  {
    "answer": "herecmdmenu",
    "question": "nethack extended: show menu of commands you can do here",
    "box": 10,
    "date": 1660502639.0
  },
  {
    "answer": "history",
    "question": "nethack extended: show long version and game history",
    "box": 6,
    "date": 1653385380.0
  },
  {
    "answer": "inventory",
    "question": "nethack extended: show your inventory",
    "box": 10,
    "date": 1660502199.0
  },
  {
    "answer": "inventtype",
    "question": "nethack extended: inventory specific item types",
    "box": 10,
    "date": 1660502473.0
  },
  {
    "answer": "invoke",
    "question": "nethack extended: invoke an object's special powers",
    "box": 10,
    "date": 1660502204.0
  },
  {
    "answer": "jump",
    "question": "nethack extended: jump to another location",
    "box": 10,
    "date": 1660502208.0
  },
  {
    "answer": "kick",
    "question": "nethack extended: kick something",
    "box": 10,
    "date": 1660502210.0
  },
  {
    "answer": "known",
    "question": "nethack extended: show what object types have been discovered",
    "box": 8,
    "date": 1653700184.0
  },
  {
    "answer": "knownclass",
    "question": "nethack extended: show discovered types for one class of objects",
    "box": 10,
    "date": 1660502644.0
  },
  {
    "answer": "look",
    "question": "nethack extended: look at what is here",
    "box": 10,
    "date": 1663636056.0
  },
  {
    "answer": "loot",
    "question": "nethack extended: loot a box on the floor",
    "box": 10,
    "date": 1660502229.0
  },
  {
    "answer": "monster",
    "question": "nethack extended: use monster's special ability",
    "box": 10,
    "date": 1660502234.0
  },
  {
    "answer": "name",
    "question": "nethack extended: name a monster or an object",
    "box": 10,
    "date": 1660502245.0
  },
  {
    "answer": "offer",
    "question": "nethack extended: offer a sacrifice to the gods",
    "box": 10,
    "date": 1660502249.0
  },
  {
    "answer": "open",
    "question": "nethack extended: open a door",
    "box": 10,
    "date": 1660502251.0
  },
  {
    "answer": "options",
    "question": "nethack extended: show option settings, possibly change them",
    "box": 8,
    "date": 1653700124.0
  },
  {
    "answer": "overview",
    "question": "nethack extended: show a summary of the explored dungeon",
    "box": 10,
    "date": 1660502433.0
  },
  {
    "answer": "pay",
    "question": "nethack extended: pay your shopping bill",
    "box": 10,
    "date": 1660502465.0
  },
  {
    "answer": "pickup",
    "question": "nethack extended: pick up things at the current location",
    "box": 10,
    "date": 1660502565.0
  },
  {
    "answer": "pray",
    "question": "nethack extended: pray to the gods for help",
    "box": 10,
    "date": 1660502647.0
  },
  {
    "answer": "prevmsg",
    "question": "nethack extended: view recent game messages",
    "box": 9,
    "date": 1653604536.0
  },
  {
    "answer": "puton",
    "question": "nethack extended: put on an accessory (ring, amulet, etc)",
    "box": 10,
    "date": 1660502668.0
  },
  {
    "answer": "quaff",
    "question": "nethack extended: quaff (drink) something",
    "box": 10,
    "date": 1660502670.0
  },
  {
    "answer": "quit",
    "question": "nethack extended: exit without saving current game",
    "box": 8,
    "date": 1653700583.0
  },
  {
    "answer": "quiver",
    "question": "nethack extended: select ammunition for quiver",
    "box": 10,
    "date": 1660502674.0
  },
  {
    "answer": "read",
    "question": "nethack extended: read a scroll or spellbook",
    "box": 10,
    "date": 1660502677.0
  },
  {
    "answer": "redraw",
    "question": "nethack extended: redraw screen",
    "box": 10,
    "date": 1660502680.0
  },
  {
    "answer": "remove",
    "question": "nethack extended: remove an accessory (ring, amulet, etc)",
    "box": 10,
    "date": 1660502683.0
  },
  {
    "answer": "ride",
    "question": "nethack extended: mount or dismount a saddled steed",
    "box": 10,
    "date": 1660502685.0
  },
  {
    "answer": "rub",
    "question": "nethack extended: rub a lamp or a stone",
    "box": 10,
    "date": 1660502689.0
  },
  {
    "answer": "save",
    "question": "nethack extended: save the game and exit",
    "box": 10,
    "date": 1660502691.0
  },
  {
    "answer": "search",
    "question": "nethack extended: search for traps and secret doors",
    "box": 10,
    "date": 1660502695.0
  },
  {
    "answer": "seeall",
    "question": "nethack extended: show all equipment in use",
    "box": 10,
    "date": 1660503479.0
  },
  {
    "answer": "seeamulet",
    "question": "nethack extended: show the amulet currently worn",
    "box": 10,
    "date": 1660502823.0
  },
  {
    "answer": "seearmor",
    "question": "nethack extended: show the armor currently worn",
    "box": 10,
    "date": 1660502826.0
  },
  {
    "answer": "seegold",
    "question": "nethack extended: count your gold",
    "box": 10,
    "date": 1660502829.0
  },
  {
    "answer": "seerings",
    "question": "nethack extended: show the ring(s) currently worn",
    "box": 10,
    "date": 1660502832.0
  },
  {
    "answer": "seespells",
    "question": "nethack extended: list and reorder known spells",
    "box": 10,
    "date": 1660502854.0
  },
  {
    "answer": "seetools",
    "question": "nethack extended: show the tools currently in use",
    "box": 10,
    "date": 1660502850.0
  },
  {
    "answer": "seetrap",
    "question": "nethack extended: show the type of adjacent trap",
    "box": 10,
    "date": 1660503485.0
  },
  {
    "answer": "seeweapon",
    "question": "nethack extended: show the weapon currently wielded",
    "box": 10,
    "date": 1660503473.0
  },
  {
    "answer": "shell",
    "question": "nethack extended: do a shell escape",
    "box": 10,
    "date": 1660503476.0
  },
  {
    "answer": "sit",
    "question": "nethack extended: sit down",
    "box": 10,
    "date": 1660503487.0
  },
  {
    "answer": "suspend",
    "question": "nethack extended: suspend the game",
    "box": 10,
    "date": 1660503491.0
  },
  {
    "answer": "swap",
    "question": "nethack extended: swap wielded and secondary weapons",
    "box": 10,
    "date": 1660503512.0
  },
  {
    "answer": "takeoff",
    "question": "nethack extended: take off one piece of armor",
    "box": 8,
    "date": 1653694227.0
  },
  {
    "answer": "takeoffall",
    "question": "nethack extended: remove all armor",
    "box": 10,
    "date": 1660503517.0
  },
  {
    "answer": "teleport",
    "question": "nethack extended: teleport around the level",
    "box": 10,
    "date": 1660503536.0
  },
  {
    "answer": "terrain",
    "question": "nethack extended: show map without obstructions",
    "box": 9,
    "date": 1655423583.0
  },
  {
    "answer": "therecmdmenu",
    "question": "nethack extended: menu of commands you can do from here to adjacent spot",
    "box": 10,
    "date": 1661045702.0
  },
  {
    "answer": "throw",
    "question": "nethack extended: throw something",
    "box": 10,
    "date": 1660503510.0
  },
  {
    "answer": "tip",
    "question": "nethack extended: empty a container",
    "box": 10,
    "date": 1660503527.0
  },
  {
    "answer": "travel",
    "question": "nethack extended: travel to a specific location on the map",
    "box": 10,
    "date": 1660503530.0
  },
  {
    "answer": "turn",
    "question": "nethack extended: turn undead away",
    "box": 10,
    "date": 1660503533.0
  },
  {
    "answer": "twoweapon",
    "question": "nethack extended: toggle two-weapon combat",
    "box": 10,
    "date": 1660503545.0
  },
  {
    "answer": "untrap",
    "question": "nethack extended: untrap something",
    "box": 10,
    "date": 1660503539.0
  },
  {
    "answer": "up",
    "question": "nethack extended: go up a staircase",
    "box": 10,
    "date": 1660503585.0
  },
  {
    "answer": "version",
    "question": "nethack extended: list compile time options for this version of NetHack",
    "box": 10,
    "date": 1660503552.0
  },
  {
    "answer": "versionshort",
    "question": "nethack extended: show version",
    "box": 10,
    "date": 1660503556.0
  },
  {
    "answer": "wait",
    "question": "nethack extended: rest one move while doing nothing",
    "box": 10,
    "date": 1660503564.0
  },
  {
    "answer": "wear",
    "question": "nethack extended: wear a piece of armor",
    "box": 10,
    "date": 1660503567.0
  },
  {
    "answer": "whatdoes",
    "question": "nethack extended: tell what a command does",
    "box": 10,
    "date": 1660503590.0
  },
  {
    "answer": "whatis",
    "question": "nethack extended: show what type of thing a symbol corresponds to",
    "box": 10,
    "date": 1661813599.0
  },
  {
    "answer": "wield",
    "question": "nethack extended: wield (put in use) a weapon",
    "box": 10,
    "date": 1660503572.0
  },
  {
    "answer": "wipe",
    "question": "nethack extended: wipe off your face",
    "box": 10,
    "date": 1660503592.0
  },
  {
    "answer": "zap",
    "question": "nethack extended: zap a wand",
    "box": 10,
    "date": 1660503594.0
  },
  {
    "answer": "left windows key",
    "question": "pt2: left amiga key",
    "box": 8,
    "date": 1653700528.0
  },
  {
    "answer": "right alt gr",
    "question": "pt2: right amiga key",
    "box": 6,
    "date": 1653385365.0
  },
  {
    "answer": "alt + f11",
    "question": "pt2: toggle between real/fake VU-Meters",
    "box": 10,
    "date": 1661045764.0
  },
  {
    "answer": "f11",
    "question": "pt2: toggle fullscreen",
    "box": 10,
    "date": 1660682664.0
  },
  {
    "answer": "f12",
    "question": "pt2: toggle amiga model (for low-pass filter)",
    "box": 5,
    "date": 1653370874.0
  },
  {
    "answer": "shift + f12",
    "question": "pt2: toggle amiga panning (100% stereo separation)",
    "box": 5,
    "date": 1653372682.0
  },
  {
    "answer": "ctrl + f12",
    "question": "pt2: toggle cia/vblank timing for tempo/speed effect (Fxx)",
    "box": 8,
    "date": 1653694380.0
  },
  {
    "answer": "alt + 1/2/3/4",
    "question": "pt2: increase multi ordering (when in idle, not play/edit/rec.)",
    "box": 8,
    "date": 1653799389.0
  },
  {
    "answer": "f1",
    "question": "pt2: choose low octave (from c-1 to g-3)",
    "box": 10,
    "date": 1660683803.0
  },
  {
    "answer": "f2",
    "question": "pt2: Choose high octave (from C-2 to B-3)",
    "box": 10,
    "date": 1660683804.0
  },
  {
    "answer": "shift + f3",
    "question": "pt2: cut channel to buffer",
    "box": 10,
    "date": 1661720124.0
  },
  {
    "answer": "shift + f4",
    "question": "pt2: copy channel to buffer",
    "box": 9,
    "date": 1653512722.0
  },
  {
    "answer": "shift + f5",
    "question": "pt2: paste channel buffer to channel",
    "box": 10,
    "date": 1661721575.0
  },
  {
    "answer": "alt + f3",
    "question": "pt2: cut whole pattern to buffer",
    "box": 9,
    "date": 1653512529.0
  },
  {
    "answer": "alt + f4",
    "question": "pt2: copy whole pattern to buffer",
    "box": 10,
    "date": 1660685117.0
  },
  {
    "answer": "alt + f5",
    "question": "pt2: paste pattern buffer to pattern",
    "box": 10,
    "date": 1661812370.0
  },
  {
    "answer": "ctrl + f3",
    "question": "pt2: cut commands to buffer",
    "box": 9,
    "date": 1653513106.0
  },
  {
    "answer": "ctrl + f4",
    "question": "pt2: copy commands to buffer",
    "box": 8,
    "date": 1653694768.0
  },
  {
    "answer": "ctrl + f5",
    "question": "pt2: paste command buffer to channel",
    "box": 6,
    "date": 1653385916.0
  },
  {
    "answer": "f6",
    "question": "pt2: go to row 0",
    "box": 10,
    "date": 1661045788.0
  },
  {
    "answer": "f7",
    "question": "pt2: go to row 16",
    "box": 5,
    "date": 1653370486.0
  },
  {
    "answer": "f8",
    "question": "pt2: go to row 32",
    "box": 10,
    "date": 1661045793.0
  },
  {
    "answer": "f9",
    "question": "pt2: go to row 48",
    "box": 10,
    "date": 1661045808.0
  },
  {
    "answer": "f10",
    "question": "pt2:  go to row 63",
    "box": 10,
    "date": 1661045810.0
  },
  {
    "answer": "shift + f6-f10",
    "question": "pt2: store current row on selected F-key",
    "box": 8,
    "date": 1653700272.0
  },
  {
    "answer": "alt + f6-f10",
    "question": "pt2: play pattern from the stored row",
    "box": 5,
    "date": 1653372792.0
  },
  {
    "answer": "ctrl + f6-f10",
    "question": "pt2: record from the stored row",
    "box": 9,
    "date": 1653512980.0
  },
  {
    "answer": "esc",
    "question": "pt2: exit diskop/EditOp/Sampler etc...",
    "box": 10,
    "date": 1661721129.0
  },
  {
    "answer": "shift + return",
    "question": "pt2: insert blank note at current row and move the others down.",
    "box": 9,
    "date": 1653512888.0
  },
  {
    "answer": "shift + backspace",
    "question": "pt2: delete note above current row and move the others up.",
    "box": 10,
    "date": 1661045894.0
  },
  {
    "answer": "alt + return",
    "question": "pt2: insert blank note at current row and move the others down, but with all 4 channels",
    "box": 9,
    "date": 1653512899.0
  },
  {
    "answer": "alt + backspace",
    "question": "pt2: delete note above current row and move the others up, but with all 4 channels",
    "box": 10,
    "date": 1661045923.0
  },
  {
    "answer": "ctrl + return",
    "question": "pt2: push commands one down",
    "box": 9,
    "date": 1653604559.0
  },
  {
    "answer": "ctrl + backspace",
    "question": "pt2: drag commands one up",
    "box": 10,
    "date": 1661045934.0
  },
  {
    "answer": "ctrl + 0-9",
    "question": "pt2: select how many rows ProTracker will jump down each time you insert a note",
    "box": 8,
    "date": 1653695140.0
  },
  {
    "answer": "alt + right",
    "question": "pt2: pattern number up",
    "box": 10,
    "date": 1661047324.0
  },
  {
    "answer": "alt + left",
    "question": "pt2: pattern number down",
    "box": 10,
    "date": 1661812274.0
  },
  {
    "answer": "shift + right",
    "question": "pt2: song position up",
    "box": 10,
    "date": 1661047319.0
  },
  {
    "answer": "shift + left",
    "question": "pt2: song position down",
    "box": 8,
    "date": 1653695324.0
  },
  {
    "answer": "space",
    "question": "pt2: toggle between Stop/Edit-mode",
    "box": 8,
    "date": 1653800011.0
  },
  {
    "answer": "alt gr",
    "question": "pt2: play song",
    "box": 8,
    "date": 1653699607.0
  },
  {
    "answer": "right ctrl",
    "question": "pt2: play pattern",
    "box": 8,
    "date": 1653700503.0
  },
  {
    "answer": "right shift",
    "question": "pt2: record",
    "box": 6,
    "date": 1653385471.0
  },
  {
    "answer": "capslock",
    "question": "pt2: toggle keyrepeat on/off (will use the OS settings for repeat/delay)",
    "box": 10,
    "date": 1661046454.0
  },
  {
    "answer": "del",
    "question": "pt2: delete note under cursor",
    "box": 10,
    "date": 1661046460.0
  },
  {
    "answer": "alt + del",
    "question": "pt2: delete command only",
    "box": 8,
    "date": 1653700478.0
  },
  {
    "answer": "shift + del",
    "question": "pt2: delete note and command",
    "box": 6,
    "date": 1653385664.0
  },
  {
    "answer": "numpad ./del",
    "question": "pt2: kill sample",
    "box": 10,
    "date": 1661046528.0
  },
  {
    "answer": "numpad 0",
    "question": "pt2: select sample $0",
    "box": 9,
    "date": 1653512997.0
  },
  {
    "answer": "numpad 1st row",
    "question": "pt2: select sample $1-$4",
    "box": 9,
    "date": 1653513002.0
  },
  {
    "answer": "numpad 2nd row",
    "question": "pt2: select sample $5-$8",
    "box": 10,
    "date": 1661046514.0
  },
  {
    "answer": "numpad 3rd row",
    "question": "pt2: select sample $9-$c",
    "box": 10,
    "date": 1661046499.0
  },
  {
    "answer": "numpad 4th row",
    "question": "pt2: select sample $d-$f",
    "box": 10,
    "date": 1661046509.0
  },
  {
    "answer": "numpad enter",
    "question": "pt2: toggle sample offset  + $10",
    "box": 10,
    "date": 1661812186.0
  },
  {
    "answer": "numpad enter + number",
    "question": "pt2: select sample $11-$1F",
    "box": 10,
    "date": 1661812250.0
  },
  {
    "answer": "left amiga + 1",
    "question": "pt2: sample/channel note up",
    "box": 10,
    "date": 1661812266.0
  },
  {
    "answer": "left amiga + 2",
    "question": "pt2: sample/pattern note up",
    "box": 8,
    "date": 1653800005.0
  },
  {
    "answer": "left amiga + q",
    "question": "pt2: sample/channel Note Down",
    "box": 8,
    "date": 1653799623.0
  },
  {
    "answer": "left amiga + w",
    "question": "pt2: sample/pattern Note Down",
    "box": 10,
    "date": 1661200967.0
  },
  {
    "answer": "left amiga + a",
    "question": "pt2: sample/channel Octave Up",
    "box": 10,
    "date": 1661047302.0
  },
  {
    "answer": "left amiga + s",
    "question": "pt2: sample/pattern Octave Up",
    "box": 10,
    "date": 1661201935.0
  },
  {
    "answer": "left amiga + z",
    "question": "pt2: sample/channel Octave Down",
    "box": 10,
    "date": 1661720203.0
  },
  {
    "answer": "left amiga + x",
    "question": "pt2: sample/pattern Octave Down",
    "box": 10,
    "date": 1661202125.0
  },
  {
    "answer": "left amiga + 3",
    "question": "pt2: all/channel note Up",
    "box": 10,
    "date": 1661201956.0
  },
  {
    "answer": "left amiga + 4",
    "question": "pt2: all/pattern note Up",
    "box": 10,
    "date": 1661201967.0
  },
  {
    "answer": "left amiga + e",
    "question": "pt2: all/channel note Down",
    "box": 10,
    "date": 1661201975.0
  },
  {
    "answer": "left amiga + r",
    "question": "pt2: all/pattern note Down",
    "box": 9,
    "date": 1653604670.0
  },
  {
    "answer": "left amiga + d",
    "question": "pt2: all/channel octave Up",
    "box": 10,
    "date": 1661201981.0
  },
  {
    "answer": "left amiga + f",
    "question": "pt2: all/pattern octave Up",
    "box": 10,
    "date": 1661201992.0
  },
  {
    "answer": "left amiga + c",
    "question": "pt2: all/channel octave Down",
    "box": 10,
    "date": 1661202132.0
  },
  {
    "answer": "left amiga + v",
    "question": "pt2: all/pattern octave Down",
    "box": 10,
    "date": 1661813293.0
  },
  {
    "answer": "tab",
    "question": "pt2: move cursor to next channel",
    "box": 10,
    "date": 1661201997.0
  },
  {
    "answer": "shift + tab",
    "question": "pt2: move cursor to prev channel",
    "box": 9,
    "date": 1655427160.0
  },
  {
    "answer": "ctrl + a",
    "question": "pt2: toggle channel on/off",
    "box": 6,
    "date": 1653384911.0
  },
  {
    "answer": "ctrl + b",
    "question": "pt2: mark block",
    "box": 8,
    "date": 1653799498.0
  },
  {
    "answer": "ctrl + c",
    "question": "pt2: copy block to buffer (if sampler is open; copy data)",
    "box": 8,
    "date": 1653700428.0
  },
  {
    "answer": "ctrl + d",
    "question": "pt2: delete block, drag notes up",
    "box": 6,
    "date": 1653385597.0
  },
  {
    "answer": "ctrl + e",
    "question": "pt2: expand notes in channel",
    "box": 6,
    "date": 1653385485.0
  },
  {
    "answer": "ctrl + f",
    "question": "pt2: toggle led filter on/off",
    "box": 8,
    "date": 1653799787.0
  },
  {
    "answer": "ctrl + g",
    "question": "pt2: boost treble on all samples",
    "box": 8,
    "date": 1653799477.0
  },
  {
    "answer": "ctrl + h",
    "question": "pt2: transpose block up",
    "box": 5,
    "date": 1653372815.0
  },
  {
    "answer": "ctrl + i",
    "question": "pt2: insert block, push notes down",
    "box": 10,
    "date": 1661203108.0
  },
  {
    "answer": "ctrl + j",
    "question": "pt2: join-paste block",
    "box": 5,
    "date": 1653370878.0
  },
  {
    "answer": "ctrl + k",
    "question": "pt2: kill notes to end of channel",
    "box": 4,
    "date": 1653370466.0
  },
  {
    "answer": "ctrl + l",
    "question": "pt2: transpose block down",
    "box": 6,
    "date": 1653385604.0
  },
  {
    "answer": "ctrl + m",
    "question": "pt2: toggle multikeys",
    "box": 9,
    "date": 1653604645.0
  },
  {
    "answer": "ctrl + n",
    "question": "pt2: re-mark last block",
    "box": 10,
    "date": 1661202873.0
  },
  {
    "answer": "ctrl + o",
    "question": "pt2: shrink notes in channel",
    "box": 9,
    "date": 1653604649.0
  },
  {
    "answer": "ctrl + p",
    "question": "pt2: paste block",
    "box": 10,
    "date": 1661202892.0
  },
  {
    "answer": "ctrl + q",
    "question": "pt2: unmute all channels",
    "box": 6,
    "date": 1653385806.0
  },
  {
    "answer": "ctrl + r",
    "question": "pt2: restore f6-f10 positions",
    "box": 6,
    "date": 1653385583.0
  },
  {
    "answer": "ctrl + s",
    "question": "pt2: save module (this is 'toggle split mode' in original PT)",
    "box": 6,
    "date": 1653385353.0
  },
  {
    "answer": "ctrl + t",
    "question": "pt2: swap channels",
    "box": 8,
    "date": 1653699726.0
  },
  {
    "answer": "ctrl + u",
    "question": "pt2: undo last pattern edit change",
    "box": 10,
    "date": 1661203016.0
  },
  {
    "answer": "ctrl + v",
    "question": "pt2: decrease treble on all samples (if sampler is open; paste data)",
    "box": 8,
    "date": 1653695334.0
  },
  {
    "answer": "ctrl + w",
    "question": "pt2: polyphonize block",
    "box": 5,
    "date": 1653370883.0
  },
  {
    "answer": "ctrl + x",
    "question": "pt2: cut block to buffer (if sampler is open; cut data)",
    "box": 6,
    "date": 1653385551.0
  },
  {
    "answer": "ctrl + y",
    "question": "pt2: backwards block",
    "box": 9,
    "date": 1653512283.0
  },
  {
    "answer": "ctrl + z",
    "question": "pt2: restore effects (if sampler is open; restore sample data + attributes)",
    "box": 6,
    "date": 1653385543.0
  },
  {
    "answer": "shift + 0-9",
    "question": "pt2: store current command on selected key",
    "box": 8,
    "date": 1653695246.0
  },
  {
    "answer": "alt + 0-9",
    "question": "pt2: insert command in current channel",
    "box": 5,
    "date": 1653372702.0
  },
  {
    "answer": "alt + \\",
    "question": "pt2: copy command above cursor to current row.",
    "box": 5,
    "date": 1653373730.0
  },
  {
    "answer": "alt + =",
    "question": "pt2: copy command above cursor to current row and add one to the value.",
    "box": 10,
    "date": 1661203095.0
  },
  {
    "answer": "alt + -",
    "question": "pt2: copy command above cursor to current row and subract one from the value.",
    "box": 10,
    "date": 1661203214.0
  },
  {
    "answer": "alt + b",
    "question": "pt2: treble increase current sample",
    "box": 8,
    "date": 1653700487.0
  },
  {
    "answer": "alt + c",
    "question": "pt2: toggle channel 3",
    "box": 10,
    "date": 1661203191.0
  },
  {
    "answer": "alt + d",
    "question": "pt2: toggle disk op. screen",
    "box": 10,
    "date": 1661720019.0
  },
  {
    "answer": "alt + e",
    "question": "pt2: toggle edit op. + screens",
    "box": 10,
    "date": 1661720472.0
  },
  {
    "answer": "alt + f",
    "question": "pt2: treble decrease current sample",
    "box": 6,
    "date": 1653385336.0
  },
  {
    "answer": "alt + g",
    "question": "pt2: toggle record mode (PT clone or PT2.3E only)",
    "box": 5,
    "date": 1653373589.0
  },
  {
    "answer": "alt + i",
    "question": "pt2: auto insert effect on/off",
    "box": 5,
    "date": 1653372678.0
  },
  {
    "answer": "alt + k",
    "question": "pt2: delete current sample/channel",
    "box": 5,
    "date": 1653372657.0
  },
  {
    "answer": "alt + m",
    "question": "pt2: toggle metronome on/off (hold SHIFT to set metronome channel)",
    "box": 10,
    "date": 1661720476.0
  },
  {
    "answer": "alt + p",
    "question": "pt2: toggle pos ed. screen",
    "box": 6,
    "date": 1653385406.0
  },
  {
    "answer": "alt + q",
    "question": "pt2: quit protracker",
    "box": 6,
    "date": 1653385341.0
  },
  {
    "answer": "alt + r",
    "question": "pt2: resample current sample",
    "box": 10,
    "date": 1661721121.0
  },
  {
    "answer": "alt + s",
    "question": "pt2: toggle sampler screen",
    "box": 10,
    "date": 1661721115.0
  },
  {
    "answer": "alt + t",
    "question": "pt2: toggle tuning tone",
    "box": 10,
    "date": 1661721118.0
  },
  {
    "answer": "alt + v",
    "question": "pt2: toggle channel 4",
    "box": 10,
    "date": 1661720044.0
  },
  {
    "answer": "alt + x",
    "question": "pt2: toggle channel 2",
    "box": 10,
    "date": 1661720055.0
  },
  {
    "answer": "alt + y",
    "question": "pt2: save all samples",
    "box": 8,
    "date": 1653699748.0
  },
  {
    "answer": "alt + z",
    "question": "pt2: toggle channel 1",
    "box": 10,
    "date": 1661720047.0
  },
  {
    "answer": "f3",
    "question": "pt2: cut (and/or ctrl + x in sampler screen)",
    "box": 8,
    "date": 1653694704.0
  },
  {
    "answer": "f4",
    "question": "pt2: copy  (and/or ctrl + c in sampler screen)",
    "box": 8,
    "date": 1653694667.0
  },
  {
    "answer": "f5",
    "question": "pt2: paste (and/or ctrl + v in sampler screen)",
    "box": 10,
    "date": 1661720148.0
  },
  {
    "answer": "return",
    "question": "pt2: step one note forward",
    "box": 10,
    "date": 1661720052.0
  },
  {
    "answer": "backspace",
    "question": "pt2: step one note backward",
    "box": 10,
    "date": 1663630671.0
  },
  {
    "answer": "'",
    "question": "pt2: decrease auto insert slot (if auto insert effect is enabled) (hold SHIFT to increase/decrease auto insert even more)",
    "box": 8,
    "date": 1653694683.0
  },
  {
    "answer": "\\",
    "question": "pt2: increase auto insert slot (if auto insert effect is enabled) (hold SHIFT to increase/decrease auto insert even more)",
    "box": 10,
    "date": 1663630686.0
  },
  {
    "answer": "\\",
    "question": "pt2: toggle keypad mode (if auto insert is disabled)",
    "box": 8,
    "date": 1653694700.0
  },
  {
    "answer": "alt + keypad",
    "question": "pt2: tune drumpad",
    "box": 9,
    "date": 1653512227.0
  },
  {
    "answer": "ctrl + left/right",
    "question": "pt2: sample up/down",
    "box": 8,
    "date": 1653699505.0
  },
  {
    "answer": "shift + key",
    "question": "pt2: jump to file entry (only when DISK OP. is shown)",
    "box": 6,
    "date": 1653385458.0
  },
  {
    "question": "addition is commutative:",
    "answer": "$a + b = b + a$",
    "box": 8,
    "date": 1653799511.0
  },
  {
    "question": "addition is associative:",
    "answer": "$(a + b) + c = a + (b + c)$",
    "box": 10,
    "date": 1661721163.0
  },
  {
    "question": "adding zero:",
    "answer": "$a + 0 = a$",
    "box": 10,
    "date": 1661812358.0
  },
  {
    "question": "multiplication is commutative:",
    "answer": "$ab = ba$",
    "box": 6,
    "date": 1653385529.0
  },
  {
    "question": "multiplication is associative:",
    "answer": "$(ab)c = a(bc)$",
    "box": 10,
    "date": 1661721175.0
  },
  {
    "question": "multiplying by $1$:",
    "answer": "$1a = a$",
    "box": 8,
    "date": 1653799637.0
  },
  {
    "question": "multiplication distributes over addition:",
    "answer": "$a(b + c) = ab + ac$ and $(b + c)a = ba + ca$",
    "box": 8,
    "date": 1653699640.0
  },
  {
    "answer": "multiplication distributes over addition",
    "question": "$a(b + c) = ab + ac$ and $(b + c)a = ba + ca$",
    "box": 10,
    "date": 1661721362.0
  },
  {
    "question": "negation property:",
    "answer": "$-a + a = 0$",
    "box": 8,
    "date": 1653699616.0
  },
  {
    "question": "reciprocal property:",
    "answer": "if $a$ is nonzero, then $\\frac{1}{a} \\cdot a = 1$",
    "box": 8,
    "date": 1653695130.0
  },
  {
    "question": "subtraction:",
    "answer": "$a - b = a + (-b)$",
    "box": 8,
    "date": 1653799567.0
  },
  {
    "question": "division:",
    "answer": "if $b$ is nonzero, then $a \\div b = a \\cdot \\frac{1}{b}$",
    "box": 10,
    "date": 1661721443.0
  },
  {
    "question": "negation of negation:",
    "answer": "$-(-a) = a$",
    "box": 8,
    "date": 1653799798.0
  },
  {
    "question": "negation of sum:",
    "answer": "$-(a + b) = (-a) + (-b)$",
    "box": 8,
    "date": 1653697982.0
  },
  {
    "question": "multiplying by zero:",
    "answer": "$0a = 0$",
    "box": 8,
    "date": 1653799589.0
  },
  {
    "question": "multiplying by $-1$:",
    "answer": "$-1a = -a$",
    "box": 8,
    "date": 1653799779.0
  },
  {
    "question": "multiplying by negation:",
    "answer": "$(-a)b = -(ab)$ and $a(-b) = -(ab)$",
    "box": 8,
    "date": 1653699766.0
  },
  {
    "question": "negation times negation:",
    "answer": "$(-a)(-b) = ab$",
    "box": 8,
    "date": 1653699863.0
  },
  {
    "question": "subtracting from zero:",
    "answer": "$0 - a = -a$",
    "box": 8,
    "date": 1653700289.0
  },
  {
    "question": "self subtraction:",
    "answer": "$a - a = 0$",
    "box": 10,
    "date": 1661721738.0
  },
  {
    "question": "subtracting zero:",
    "answer": "$a - 0 = a$",
    "box": 10,
    "date": 1661812440.0
  },
  {
    "question": "subtraction of negation:",
    "answer": "$a - (-b) = a + b$",
    "box": 10,
    "date": 1661812453.0
  },
  {
    "question": "subtraction from negation:",
    "answer": "$(-a) - b = -(a + b)$",
    "box": 8,
    "date": 1653699741.0
  },
  {
    "question": "negation of subtraction:",
    "answer": "$-(a - b) = b - a$",
    "box": 8,
    "date": 1653699497.0
  },
  {
    "question": "multiplication distributes over subtraction:",
    "answer": "$a(b - c) = ab - ac$ and $(b - c)a = ba - ca$",
    "box": 8,
    "date": 1653699548.0
  },
  {
    "question": "reciprocal of reciprocal:",
    "answer": "if $a$ is nonzero, then the reciprocal of $\\frac{1}{a}$ is $a$",
    "box": 8,
    "date": 1653694596.0
  },
  {
    "question": "reciprocal of negation:",
    "answer": "if $a$ is nonzero, then $\\frac{1}{-a} = -\\frac{1}{a}$",
    "box": 8,
    "date": 1653694574.0
  },
  {
    "question": "reciprocal of product:",
    "answer": "if $a$ and $b$ are nonzero, then $\\frac{1}{ab} = \\frac{1}{a} \\cdot \\frac{1}{b}$",
    "box": 8,
    "date": 1653699890.0
  },
  {
    "question": "dividing into zero:",
    "answer": "if $a$ is nonzero, then $0 \\div a = 0$",
    "box": 8,
    "date": 1653694719.0
  },
  {
    "question": "self division:",
    "answer": "if $a$ is nonzero, then $a \\div a = 1$",
    "box": 8,
    "date": 1653694736.0
  },
  {
    "question": "dividing by $1$:",
    "answer": "$a \\div 1 = a$",
    "box": 8,
    "date": 1653694612.0
  },
  {
    "question": "dividing into $1$:",
    "answer": "if $a$ is nonzero, then $1 \\div a = \\frac{1}{a}$",
    "box": 8,
    "date": 1653694786.0
  },
  {
    "question": "dividing by reciprocal:",
    "answer": "if $b$ is nonzero, then $a \\div \\frac{1}{b} = ab$",
    "box": 8,
    "date": 1653694829.0
  },
  {
    "question": "dividing into negation:",
    "answer": "if $b$ is nonzero, then $(-a) \\div b = -(a \\div b)$",
    "box": 8,
    "date": 1653694850.0
  },
  {
    "question": "dividing by negation:",
    "answer": "if $b$ is nonzero, then $a \\div (-b) = -(a \\div b)$",
    "box": 8,
    "date": 1653695544.0
  },
  {
    "question": "negation divided by negation:",
    "answer": "if $b$ is nonzero, then $(-a) \\div (-b) = a \\div b$",
    "box": 8,
    "date": 1653695177.0
  },
  {
    "question": "cancel common factor:",
    "answer": "if $a$ and $c$ are nonzero, then $(ab) \\div (ac) = b \\div c$",
    "box": 8,
    "date": 1653695198.0
  },
  {
    "question": "division by a number distributes over addition:",
    "answer": "if $c$ is nonzero, then $(a + b) \\div c = a \\div c + b \\div c$",
    "box": 8,
    "date": 1653695360.0
  },
  {
    "question": "division by a number distributes over subtraction:",
    "answer": "if $c$ is nonzero, then $(a - b) \\div c = a \\div c - b \\div c$",
    "box": 8,
    "date": 1653695566.0
  },
  {
    "question": "PT2: Normal play or Arpeggio",
    "answer": "0x(note2)y(note3)",
    "box": 5,
    "date": 1653372603.0
  },
  {
    "question": "PT2: Slide Up",
    "answer": "1xx",
    "box": 6,
    "date": 1653384904.0
  },
  {
    "question": "PT2: Slide Down",
    "answer": "2xx",
    "box": 4,
    "date": 1653370559.0
  },
  {
    "question": "PT2: Tone Portamento",
    "answer": "3xx",
    "box": 4,
    "date": 1653370768.0
  },
  {
    "question": "PT2: Vibrato",
    "answer": "4x(rate)y(depth)",
    "box": 3,
    "date": 1653371059.0
  },
  {
    "question": "PT2: Tone Portamento + Volume Slide Up",
    "answer": "5x0",
    "box": 4,
    "date": 1653370328.0
  },
  {
    "question": "PT2: Tone Portamento + Volume Slide Down",
    "answer": "50x",
    "box": 3,
    "date": 1653370295.0
  },
  {
    "question": "PT2: Vibrato + Volume Slide Up",
    "answer": "6x0",
    "box": 4,
    "date": 1653370333.0
  },
  {
    "question": "PT2: Vibrato + Volume Slide Down",
    "answer": "60x",
    "box": 4,
    "date": 1653370325.0
  },
  {
    "question": "PT2: Tremolo",
    "answer": "7x(rate)y(depth)",
    "box": 4,
    "date": 1653370292.0
  },
  {
    "question": "PT2: Set Sample Offset",
    "answer": "9xx",
    "box": 4,
    "date": 1653370843.0
  },
  {
    "question": "PT2: Volume Slide Up",
    "answer": "Ax0",
    "box": 3,
    "date": 1653370283.0
  },
  {
    "question": "PT2: Volume Slide Down",
    "answer": "A0x",
    "box": 3,
    "date": 1653370342.0
  },
  {
    "question": "PT2: Position Jump",
    "answer": "Bxx",
    "box": 3,
    "date": 1653370369.0
  },
  {
    "question": "PT2: Set Volume",
    "answer": "C00-C40",
    "box": 0,
    "date": 1653370928.0
  },
  {
    "question": "PT2: Pattern Break",
    "answer": "Dxx",
    "box": 0,
    "date": 1653370283.0
  },
  {
    "question": "PT2: Set Speed",
    "answer": "F00-F1F",
    "box": 0,
    "date": 0
  },
  {
    "question": "PT2: Set Tempo",
    "answer": "F20-FFF",
    "box": 0,
    "date": 0
  },
  {
    "question": "PT2: Default Speed",
    "answer": "F06",
    "box": 0,
    "date": 0
  },
  {
    "question": "PT2: Default Tempo",
    "answer": "F7D",
    "box": 0,
    "date": 0
  },
  {
    "question": "PT2: Filter On",
    "answer": "E00",
    "box": 0,
    "date": 0
  },
  {
    "question": "PT2: Filter Off",
    "answer": "E01",
    "box": 0,
    "date": 0
  },
  {
    "question": "PT2: Fineslide Up",
    "answer": "E1x",
    "box": 0,
    "date": 0
  },
  {
    "question": "PT2: Fineslide Down",
    "answer": "E2x",
    "box": 0,
    "date": 0
  },
  {
    "question": "PT2: Glissando On",
    "answer": "E31",
    "box": 0,
    "date": 0
  },
  {
    "question": "PT2: Glissando Off",
    "answer": "E30",
    "box": 0,
    "date": 0
  },
  {
    "question": "PT2: Vibrato Sine",
    "answer": "E40",
    "box": 0,
    "date": 0
  },
  {
    "question": "PT2: Vibrato Ramp-Down",
    "answer": "E41",
    "box": 0,
    "date": 0
  },
  {
    "question": "PT2: Vibrato Square",
    "answer": "E42",
    "box": 0,
    "date": 0
  },
  {
    "question": "PT2: Vibrato Sine (No Retrig)",
    "answer": "E44",
    "box": 0,
    "date": 0
  },
  {
    "question": "PT2: Vibrato Ramp-Down (No Retrig)",
    "answer": "E45",
    "box": 0,
    "date": 0
  },
  {
    "question": "PT2: Vibrato Square (No Retrig)",
    "answer": "E46",
    "box": 0,
    "date": 0
  },
  {
    "question": "PT2: Set Finetune",
    "answer": "E5x",
    "box": 0,
    "date": 0
  },
  {
    "question": "PT2: Set Loop Start",
    "answer": "E60",
    "box": 0,
    "date": 0
  },
  {
    "question": "PT2: Number of Loops",
    "answer": "E61-E6F",
    "box": 0,
    "date": 0
  },
  {
    "question": "PT2: Tremolo sine",
    "answer": "E70",
    "box": 0,
    "date": 0
  },
  {
    "question": "PT2: Tremolo Sine (No Retrig)",
    "answer": "E74",
    "box": 0,
    "date": 0
  },
  {
    "question": "PT2: Tremolo Ramp Down",
    "answer": "E71",
    "box": 0,
    "date": 0
  },
  {
    "question": "PT2: Tremolo Ramp Down (No Retrig)",
    "answer": "E75",
    "box": 0,
    "date": 0
  },
  {
    "question": "PT2: Tremolo Square",
    "answer": "E72",
    "box": 0,
    "date": 0
  },
  {
    "question": "PT2: Tremolo Square (No Retrig)",
    "answer": "E76",
    "box": 0,
    "date": 0
  },
  {
    "question": "PT2: Not Implemented (Filter Loop)",
    "answer": "E8x",
    "box": 0,
    "date": 0
  },
  {
    "question": "PT2: Retrig Note",
    "answer": "E9x",
    "box": 0,
    "date": 0
  },
  {
    "question": "PT2: FineVol Up",
    "answer": "EAx",
    "box": 0,
    "date": 0
  },
  {
    "question": "PT2: FineVol Down",
    "answer": "EBx",
    "box": 0,
    "date": 0
  },
  {
    "question": "PT2: NoteCut",
    "answer": "ECx",
    "box": 0,
    "date": 0
  },
  {
    "question": "PT2: NoteDelay",
    "answer": "EDx",
    "box": 0,
    "date": 0
  },
  {
    "question": "PT2: PatternDelay",
    "answer": "EEx",
    "box": 0,
    "date": 0
  },
  {
    "question": "PT2: Invert Loop",
    "answer": "EFx",
    "box": 0,
    "date": 0
  }
]